<svg xmlns="http://www.w3.org/2000/svg" xmlns:xlink="http://www.w3.org/1999/xlink" width="952" height="4" viewBox="0 0 952 4">
  <defs>
    <clipPath id="clip-path">
      <rect id="Rectangle_766" data-name="Rectangle 766" width="952" height="4" transform="translate(14817 -2477)" fill="#fff" opacity="0.265"/>
    </clipPath>
  </defs>
  <g id="Mask_Group_42" data-name="Mask Group 42" transform="translate(-14817 2477)" clip-path="url(#clip-path)">
    <path id="Path_923" data-name="Path 923" stroke="#1458ea" d="M2610.567,5554.885v110.354s-.049,12.643,5.115,18.833,15.542,5.927,15.542,5.927h973.734" fill="none" transform="translate(12183.945 -8165)" stroke-linecap="round" stroke-width="2" stroke-dasharray="20" opacity="0.4"/>
  </g>
</svg>
