<svg xmlns="http://www.w3.org/2000/svg" width="196.144" height="44" viewBox="0 0 196.144 44">
  <g id="Group_1894" data-name="Group 1894" transform="translate(-6603 102)">
    <g id="Logo_Box" data-name="Logo Box" transform="translate(6603 -102)">
      <path id="Path_116" data-name="Path 116" d="M78.607,164.978q2.7,1.2,5.4,2.4,3.139,1.387,6.283,2.761,3.8,1.674,7.608,3.35a1.363,1.363,0,0,1,.908,1.189,1.3,1.3,0,0,1-.831,1.364c-1.925.88-3.863,1.733-5.8,2.595q-4.671,2.082-9.344,4.161c-1.285.572-2.573,1.134-3.852,1.719a1.529,1.529,0,0,1-1.318,0q-4.368-1.921-8.734-3.847-5.068-2.234-10.138-4.465a1.384,1.384,0,0,1-.962-1.329,1.363,1.363,0,0,1,.9-1.285q4.6-2.03,9.2-4.081c2.336-1.042,4.665-2.1,7-3.146.869-.389,1.746-.759,2.614-1.15.133-.06.3-.08.385-.233Zm-17.73,9.908c2.863,1.262,5.657,2.5,8.452,3.727s5.6,2.443,8.379,3.7A1.378,1.378,0,0,0,79,182.3c3.078-1.4,6.173-2.769,9.264-4.144,1.778-.791,3.561-1.575,5.338-2.368.7-.312,1.39-.643,2.141-.992-.132-.067-.193-.1-.256-.129q-2.687-1.191-5.375-2.381-3.841-1.693-7.685-3.379c-1.261-.555-2.516-1.122-3.778-1.673a.677.677,0,0,0-.607-.041q-4.525,2.043-9.063,4.056c-1.752.781-3.508,1.55-5.259,2.333C62.787,174,61.863,174.432,60.877,174.886Z" transform="translate(-56.509 -164.978)" fill="#1458ea" fill-rule="evenodd"/>
      <path id="Path_117" data-name="Path 117" d="M63.472,341.243q0,4.9,0,9.795a1.378,1.378,0,0,1-.945,1.425,1.18,1.18,0,0,1-.878-.022l-7.959-3.392Q49.6,347.3,45.5,345.556c-.706-.3-1.406-.617-2.111-.92a1.39,1.39,0,0,1-.858-1.313c-.015-.243-.018-.486-.018-.73q-.007-8.42-.013-16.84c0-.759-.02-1.518-.007-2.277a1.364,1.364,0,0,1,1.984-1.3q5.177,2.2,10.348,4.42,3.818,1.632,7.636,3.262a1.527,1.527,0,0,1,.98,1.55q0,4.918,0,9.837Z" transform="translate(-42.492 -308.536)" fill="#1458ea" fill-rule="evenodd"/>
      <path id="Path_118" data-name="Path 118" d="M329.612,332.364c0,3.208-.01,6.415.007,9.623a1.594,1.594,0,0,1-1.056,1.662c-2.237.948-4.458,1.931-6.687,2.9q-3.441,1.491-6.885,2.974c-1.473.636-2.942,1.283-4.421,1.907a1.336,1.336,0,0,1-1.851-1.306c-.007-2.091.028-4.182-.008-6.272-.076-4.423-.016-8.846-.076-13.269a1.712,1.712,0,0,1,1.147-1.792q7.035-3.011,14.051-6.065c1.213-.525,2.421-1.06,3.631-1.593a1.394,1.394,0,0,1,2.105,1.353c.007,3.293,0,6.587,0,9.881Zm-2.063.241h-.011c0-2.936,0-5.871,0-8.807,0-.337.013-.491-.415-.3-1.761.8-3.541,1.548-5.314,2.316q-5.376,2.328-10.757,4.647a.525.525,0,0,0-.37.6c.028,1.573.036,3.147.052,4.72.043,4.3.027,8.592.025,12.888,0,.355.057.465.42.292.628-.3,1.274-.563,1.913-.839q3.4-1.469,6.81-2.938c2.412-1.044,4.82-2.1,7.236-3.135a.583.583,0,0,0,.415-.636C327.542,338.476,327.549,335.54,327.549,332.6Z" transform="translate(-285.76 -307.549)" fill="#1458ea" fill-rule="evenodd"/>
    </g>
    <path id="Path_905" data-name="Path 905" d="M.9,0V-2.82L3.4-3.3V-20.142L.9-20.625v-2.836h9.716v2.836L8.1-20.142V-3.609h6.623l.226-2.949h3.593V0ZM28.7.338a7.85,7.85,0,0,1-6.026-2.417,8.642,8.642,0,0,1-2.256-6.139v-.645a9.537,9.537,0,0,1,2.135-6.4,7.087,7.087,0,0,1,5.728-2.5,7.058,7.058,0,0,1,5.479,2.127,8.185,8.185,0,0,1,1.95,5.752v2.562H25.3l-.032.1a4.55,4.55,0,0,0,1.152,2.836A3.592,3.592,0,0,0,29.2-3.271a9.052,9.052,0,0,0,2.594-.314,11.924,11.924,0,0,0,2.256-.991l1.273,2.9a9.262,9.262,0,0,1-2.8,1.434A11.9,11.9,0,0,1,28.7.338Zm-.419-14.47a2.45,2.45,0,0,0-2.062,1,5.2,5.2,0,0,0-.935,2.626l.048.081H31.1v-.419a3.774,3.774,0,0,0-.7-2.393A2.526,2.526,0,0,0,28.279-14.131ZM37.673-2.82,39.929-3.3V-14.115l-2.5-.483v-2.836h6.88l.209,2.5a6.377,6.377,0,0,1,2.143-2.079,5.563,5.563,0,0,1,2.852-.741,5.245,5.245,0,0,1,4.125,1.66q1.482,1.66,1.482,5.2V-3.3l2.256.483V0H48.388V-2.82L50.4-3.3v-7.573a3.527,3.527,0,0,0-.709-2.49A2.854,2.854,0,0,0,47.55-14.1a3.631,3.631,0,0,0-1.676.379,3.445,3.445,0,0,0-1.241,1.072V-3.3l1.9.483V0H37.673Zm32.388.693A5.776,5.776,0,0,1,68.119-.29a5.129,5.129,0,0,1-2.554.628,5.912,5.912,0,0,1-5-2.353,10.046,10.046,0,0,1-1.781-6.22v-.338a11.291,11.291,0,0,1,1.789-6.655,5.8,5.8,0,0,1,5.027-2.53,4.827,4.827,0,0,1,2.353.572,5.751,5.751,0,0,1,1.837,1.619v-6.252L67.273-22.3v-2.836h7.219V-3.3l2.256.483V0H70.415ZM63.486-8.234a7.163,7.163,0,0,0,.765,3.6,2.674,2.674,0,0,0,2.506,1.313,3.638,3.638,0,0,0,1.789-.419,3.341,3.341,0,0,0,1.241-1.208v-7.4a3.584,3.584,0,0,0-1.233-1.3A3.309,3.309,0,0,0,66.79-14.1a2.639,2.639,0,0,0-2.514,1.531,8.726,8.726,0,0,0-.79,4Zm31.614,0A10.2,10.2,0,0,1,93.36-2,5.885,5.885,0,0,1,88.333.338,5.322,5.322,0,0,1,85.674-.3a5.417,5.417,0,0,1-1.9-1.845L83.435,0H79.374V-21.817l-2.5-.483v-2.836h7.187v9.555a5.326,5.326,0,0,1,1.813-1.611,5.067,5.067,0,0,1,2.425-.564,5.775,5.775,0,0,1,5.06,2.506A11.5,11.5,0,0,1,95.1-8.572Zm-4.689-.338a9.078,9.078,0,0,0-.749-4.036,2.629,2.629,0,0,0-2.554-1.49,3.512,3.512,0,0,0-1.853.459,3.183,3.183,0,0,0-1.192,1.313v7.364a2.965,2.965,0,0,0,1.2,1.225,3.864,3.864,0,0,0,1.877.419A2.675,2.675,0,0,0,89.687-4.6a7.461,7.461,0,0,0,.725-3.634Zm6.864-.306a9.335,9.335,0,0,1,2.183-6.389,7.607,7.607,0,0,1,6.034-2.49,7.638,7.638,0,0,1,6.051,2.481,9.328,9.328,0,0,1,2.183,6.4v.338a9.321,9.321,0,0,1-2.183,6.405A7.612,7.612,0,0,1,105.526.338a7.67,7.67,0,0,1-6.067-2.473A9.321,9.321,0,0,1,97.276-8.54Zm4.705.338a7.585,7.585,0,0,0,.838,3.827,2.893,2.893,0,0,0,2.707,1.442,2.864,2.864,0,0,0,2.667-1.45,7.534,7.534,0,0,0,.846-3.819v-.338a7.458,7.458,0,0,0-.854-3.787,2.889,2.889,0,0,0-2.691-1.466,2.853,2.853,0,0,0-2.675,1.466,7.575,7.575,0,0,0-.838,3.787Zm12.955,5.72,1.627-.258L121.3-8.814l-4.576-5.511L115.1-14.6v-2.836h7.847v2.723l-1.6.193,2.643,3.352,2.594-3.352-1.627-.193v-2.723h7.879V-14.6l-1.579.274-4.479,5.511L131.5-3.078l1.644.258V0h-7.976V-2.707l1.6-.193-2.707-3.513L121.3-2.884l1.4.177V0h-7.767Z" transform="translate(6666 -67)" fill="#1458ea"/>
  </g>
</svg>
