<svg xmlns="http://www.w3.org/2000/svg" width="67.25" height="81" viewBox="0 0 67.25 81">
    <defs>
        <style>
            .cls-1,.cls-2,.cls-3{fill:#1458ea}.cls-1,.cls-2{stroke:#fff}.cls-2{stroke-width:1.5px}
        </style>
    </defs>
    <g id="approved" transform="translate(-43.5 .5)">
        <g id="Group_1960" data-name="Group 1960" transform="translate(44)">
            <path id="Union_1" d="M-6578.057-6007.019h-31.614a4.693 4.693 0 0 1-4.687-4.686v-70.626a4.693 4.693 0 0 1 4.688-4.687h56.875a4.694 4.694 0 0 1 4.688 4.688v70.626a4.694 4.694 0 0 1-4.688 4.686zm-31.614-3.124h56.875a1.566 1.566 0 0 0 1.563-1.562v-70.626a1.565 1.565 0 0 0-1.563-1.562h-56.875a1.564 1.564 0 0 0-1.562 1.562v70.626a1.565 1.565 0 0 0 1.562 1.562z" class="cls-1" data-name="Union 1" transform="translate(6614.359 6087.018)"/>
        </g>
        <g id="Group_1962" data-name="Group 1962" transform="translate(56.609 -.87)">
            <g id="Group_1961" data-name="Group 1961">
                <path id="Path_4713" d="M176.7 87.767a20.64 20.64 0 0 0-14.161 35.666 1.877 1.877 0 0 0 .221.206 20.611 20.611 0 0 0 27.879 0 1.9 1.9 0 0 0 .221-.206 20.64 20.64 0 0 0-14.16-35.666zm0 37.473a16.741 16.741 0 0 1-10.417-3.623 11.8 11.8 0 0 1 20.835 0 16.741 16.741 0 0 1-10.418 3.623zm-4.023-17.74v-1.485a4.027 4.027 0 1 1 8.055 0v1.485a4.027 4.027 0 1 1-8.055 0zm17.244 11.312a15.488 15.488 0 0 0-7.313-6.139 7.819 7.819 0 0 0 1.951-5.173v-1.485a7.854 7.854 0 1 0-15.708 0v1.485a7.819 7.819 0 0 0 1.951 5.173 15.489 15.489 0 0 0-7.313 6.139 16.823 16.823 0 1 1 26.432 0z" class="cls-2" data-name="Path 4713" transform="translate(-156.053 -80.646)"/>
            </g>
        </g>
        <g id="Group_1964" data-name="Group 1964" transform="translate(67.806 62.188)">
            <g id="Group_1963" data-name="Group 1963">
                <path id="Path_4700" d="M220.107 398h-22.188a1.563 1.563 0 0 0 0 3.125h22.188a1.563 1.563 0 0 0 0-3.125z" class="cls-1" data-name="Path 4700" transform="translate(-196.357 -398.002)"/>
            </g>
        </g>
        <g id="Group_1966" data-name="Group 1966" transform="translate(61.131 53.437)">
            <g id="Group_1965" data-name="Group 1965">
                <path id="Path_4701" d="M156.307 342.458a1.562 1.562 0 1 0 .458 1.1 1.574 1.574 0 0 0-.458-1.1z" class="cls-3" data-name="Path 4701" transform="translate(-153.64 -342)"/>
            </g>
        </g>
        <g id="Group_1968" data-name="Group 1968" transform="translate(61.131 62.187)">
            <g id="Group_1967" data-name="Group 1967">
                <path id="Path_4702" d="M156.307 398.458a1.562 1.562 0 1 0 .458 1.1 1.571 1.571 0 0 0-.458-1.1z" class="cls-3" data-name="Path 4702" transform="translate(-153.64 -398)"/>
            </g>
        </g>
        <g id="Group_1970" data-name="Group 1970" transform="translate(67.806 53.438)">
            <g id="Group_1969" data-name="Group 1969">
                <path id="Path_4703" d="M220.107 342h-22.188a1.563 1.563 0 0 0 0 3.125h22.188a1.563 1.563 0 0 0 0-3.125z" class="cls-1" data-name="Path 4703" transform="translate(-196.357 -342.002)"/>
            </g>
        </g>
    </g>
</svg>
