<svg xmlns="http://www.w3.org/2000/svg" width="138.077" height="141.118" viewBox="0 0 138.077 141.118">
  <g id="Gear_for_Cards" data-name="Gear for Cards" transform="translate(-760.268 -2845.497)" opacity="0.5">
    <g id="Group_1553" data-name="Group 1553" transform="translate(805.867 2845.499)" opacity="0.1">
      <path id="path494" d="M642.9-315.745a17.393,17.393,0,0,0-24.6,0,17.4,17.4,0,0,0,0,24.6,17.4,17.4,0,0,0,24.6,0A17.4,17.4,0,0,0,642.9-315.745Zm18.612-18.609h0a5.5,5.5,0,0,1,0,7.77l-4.161,4.161a5.527,5.527,0,0,0-.991,6.377,28.194,28.194,0,0,1,1.37,3.3,5.537,5.537,0,0,0,5.213,3.812h5.878a5.492,5.492,0,0,1,5.492,5.492v0a5.492,5.492,0,0,1-5.492,5.492h-5.878a5.538,5.538,0,0,0-5.213,3.812,28.127,28.127,0,0,1-1.37,3.3,5.527,5.527,0,0,0,.991,6.377l4.161,4.161a5.5,5.5,0,0,1,0,7.77h0a5.493,5.493,0,0,1-7.77,0L649.58-276.7a5.531,5.531,0,0,0-6.38-.988,28.425,28.425,0,0,1-3.3,1.37,5.537,5.537,0,0,0-3.812,5.211v5.878a5.493,5.493,0,0,1-5.492,5.5h0a5.492,5.492,0,0,1-5.493-5.492v-5.88a5.54,5.54,0,0,0-3.812-5.211,28.427,28.427,0,0,1-3.3-1.37,5.531,5.531,0,0,0-6.38.988l-4.161,4.161a5.493,5.493,0,0,1-7.77,0h0a5.5,5.5,0,0,1,0-7.77l4.161-4.161a5.522,5.522,0,0,0,.988-6.377,28.575,28.575,0,0,1-1.367-3.3,5.537,5.537,0,0,0-5.213-3.812h-5.878a5.492,5.492,0,0,1-5.492-5.492v0a5.492,5.492,0,0,1,5.492-5.492h5.878a5.538,5.538,0,0,0,5.213-3.812,28.109,28.109,0,0,1,1.37-3.3,5.527,5.527,0,0,0-.991-6.377l-4.161-4.161a5.5,5.5,0,0,1,0-7.77h0a5.493,5.493,0,0,1,7.77,0l4.161,4.161a5.531,5.531,0,0,0,6.38.988,28.427,28.427,0,0,1,3.3-1.37,5.537,5.537,0,0,0,3.812-5.211v-5.878a5.494,5.494,0,0,1,5.493-5.5h0a5.493,5.493,0,0,1,5.492,5.5v5.878a5.537,5.537,0,0,0,3.812,5.211,28.416,28.416,0,0,1,3.3,1.37,5.531,5.531,0,0,0,6.38-.988l4.161-4.161a5.493,5.493,0,0,1,7.77,0" transform="translate(-584.361 349.685)" fill="#8a8a8f"/>
      <path id="path496" d="M631.919-316.988a14.827,14.827,0,0,0-10.513,4.348,14.769,14.769,0,0,0-4.356,10.516,14.767,14.767,0,0,0,4.356,10.513,14.885,14.885,0,0,0,21.026,0,14.778,14.778,0,0,0,4.356-10.513,14.779,14.779,0,0,0-4.356-10.516h0A14.832,14.832,0,0,0,631.919-316.988Zm0,34.771a19.841,19.841,0,0,1-14.086-5.825A19.785,19.785,0,0,1,612-302.124a19.786,19.786,0,0,1,5.833-14.085,19.942,19.942,0,0,1,28.171,0h0a19.785,19.785,0,0,1,5.833,14.085A19.784,19.784,0,0,1,646-288.042a19.869,19.869,0,0,1-14.085,5.825ZM616.8-279.479a8.215,8.215,0,0,1,3.634.848,26.338,26.338,0,0,0,3.006,1.247,8.087,8.087,0,0,1,5.515,7.6v5.878a2.972,2.972,0,0,0,2.97,2.969,2.974,2.974,0,0,0,2.969-2.969v-5.878a8.087,8.087,0,0,1,5.515-7.6,26.329,26.329,0,0,0,3.006-1.247,8.072,8.072,0,0,1,9.277,1.468L656.847-273a2.969,2.969,0,0,0,4.2,0,2.946,2.946,0,0,0,.868-2.1,2.946,2.946,0,0,0-.868-2.1l-4.161-4.161a8.072,8.072,0,0,1-1.471-9.277,26.2,26.2,0,0,0,1.25-3,8.087,8.087,0,0,1,7.6-5.517h5.878a2.971,2.971,0,0,0,2.967-2.967,2.971,2.971,0,0,0-2.967-2.969h-5.878a8.084,8.084,0,0,1-7.6-5.515,25.922,25.922,0,0,0-1.25-3.006,8.072,8.072,0,0,1,1.471-9.277l4.161-4.161a2.97,2.97,0,0,0,0-4.2,2.97,2.97,0,0,0-4.2,0l-4.161,4.161a8.071,8.071,0,0,1-9.28,1.468,26.009,26.009,0,0,0-3-1.247,8.087,8.087,0,0,1-5.515-7.6v-5.878a2.973,2.973,0,0,0-2.969-2.969,2.972,2.972,0,0,0-2.97,2.969v5.878a8.087,8.087,0,0,1-5.515,7.6,26.338,26.338,0,0,0-3.006,1.247,8.068,8.068,0,0,1-9.277-1.468l-4.161-4.161a2.97,2.97,0,0,0-4.2,0,2.97,2.97,0,0,0,0,4.2l4.161,4.161a8.073,8.073,0,0,1,1.471,9.277,25.943,25.943,0,0,0-1.25,3.006,8.082,8.082,0,0,1-7.6,5.515H593.7a2.974,2.974,0,0,0-2.969,2.969,2.973,2.973,0,0,0,2.969,2.967h5.878a8.087,8.087,0,0,1,7.6,5.517,26.1,26.1,0,0,0,1.25,3,8.073,8.073,0,0,1-1.471,9.277l-4.161,4.161a2.95,2.95,0,0,0-.871,2.1,2.949,2.949,0,0,0,.871,2.1,2.95,2.95,0,0,0,2.1.871h0a2.959,2.959,0,0,0,2.1-.868l4.161-4.164a7.972,7.972,0,0,1,5.643-2.316Zm15.124,23.594a8.028,8.028,0,0,1-8.018-8.021v-5.878a3,3,0,0,0-2.107-2.822A31.486,31.486,0,0,1,618.2-274.1a3.02,3.02,0,0,0-3.48.508l-4.161,4.161a7.965,7.965,0,0,1-5.671,2.35,7.97,7.97,0,0,1-5.671-2.35,7.974,7.974,0,0,1-2.347-5.671,7.968,7.968,0,0,1,2.347-5.668l4.164-4.161a3.026,3.026,0,0,0,.505-3.48A31.207,31.207,0,0,1,602.4-292a3,3,0,0,0-2.824-2.107H593.7a8.028,8.028,0,0,1-8.018-8.018,8.028,8.028,0,0,1,8.018-8.021h5.878a3,3,0,0,0,2.824-2.107,30.8,30.8,0,0,1,1.493-3.589,3.031,3.031,0,0,0-.508-3.48l-4.164-4.161a8.028,8.028,0,0,1,0-11.339,8.031,8.031,0,0,1,11.342,0l4.161,4.161a3.022,3.022,0,0,0,3.48.508,31.135,31.135,0,0,1,3.586-1.49,3,3,0,0,0,2.11-2.824v-5.878a8.028,8.028,0,0,1,8.018-8.021,8.029,8.029,0,0,1,8.018,8.021v5.878a3,3,0,0,0,2.107,2.824,30.6,30.6,0,0,1,3.589,1.49,3.026,3.026,0,0,0,3.48-.508l4.161-4.161a8.028,8.028,0,0,1,11.339,0,8.023,8.023,0,0,1,0,11.339l-4.161,4.161a3.031,3.031,0,0,0-.508,3.48,31.221,31.221,0,0,1,1.493,3.589,3,3,0,0,0,2.824,2.107h5.878a8.028,8.028,0,0,1,8.018,8.021,8.028,8.028,0,0,1-8.018,8.018h-5.878A3,3,0,0,0,661.438-292a31.8,31.8,0,0,1-1.49,3.589,3.026,3.026,0,0,0,.505,3.48l4.161,4.161a7.958,7.958,0,0,1,2.35,5.668,7.965,7.965,0,0,1-2.35,5.671,8.028,8.028,0,0,1-11.339,0l-4.161-4.161a3.022,3.022,0,0,0-3.48-.508,30.983,30.983,0,0,1-3.589,1.49,3,3,0,0,0-2.107,2.824v5.878a8.029,8.029,0,0,1-8.018,8.021" transform="translate(-585.68 348.366)" fill="#8a8a8f"/>
    </g>
    <g id="Group_1554" data-name="Group 1554" transform="translate(760.268 2918.17)" opacity="0.1">
      <path id="path498" d="M607.235-297.557a13.3,13.3,0,0,0-17.7,6.38,13.3,13.3,0,0,0,6.38,17.694,13.3,13.3,0,0,0,17.7-6.377A13.3,13.3,0,0,0,607.235-297.557Zm8.562-18.216h0a4.2,4.2,0,0,1,2.015,5.59l-1.914,4.072a4.224,4.224,0,0,0,.943,4.845,21.617,21.617,0,0,1,1.839,2.018,4.234,4.234,0,0,0,4.739,1.39l4.228-1.524a4.2,4.2,0,0,1,5.375,2.526h0a4.2,4.2,0,0,1-2.526,5.378l-4.228,1.524a4.233,4.233,0,0,0-2.76,4.094,22.339,22.339,0,0,1-.131,2.727,4.225,4.225,0,0,0,2.364,4.331l4.072,1.915a4.2,4.2,0,0,1,2.015,5.59h0a4.2,4.2,0,0,1-5.587,2.015l-4.075-1.915a4.225,4.225,0,0,0-4.845.943,21.576,21.576,0,0,1-2.015,1.839,4.23,4.23,0,0,0-1.39,4.736l1.524,4.231a4.2,4.2,0,0,1-2.526,5.375h0a4.2,4.2,0,0,1-5.375-2.526l-1.524-4.231a4.241,4.241,0,0,0-4.094-2.76,21.267,21.267,0,0,1-2.727-.131,4.225,4.225,0,0,0-4.331,2.367l-1.914,4.072a4.2,4.2,0,0,1-5.59,2.015h0a4.2,4.2,0,0,1-2.015-5.59l1.915-4.072a4.225,4.225,0,0,0-.943-4.845,21.591,21.591,0,0,1-1.839-2.015,4.24,4.24,0,0,0-4.739-1.393l-4.228,1.527a4.2,4.2,0,0,1-5.375-2.529h0a4.2,4.2,0,0,1,2.526-5.375l4.231-1.527a4.234,4.234,0,0,0,2.76-4.091,21.785,21.785,0,0,1,.128-2.727,4.229,4.229,0,0,0-2.364-4.334l-4.072-1.915a4.2,4.2,0,0,1-2.015-5.587h0a4.2,4.2,0,0,1,5.587-2.015l4.075,1.915a4.229,4.229,0,0,0,4.845-.943,21.577,21.577,0,0,1,2.015-1.839,4.234,4.234,0,0,0,1.39-4.739l-1.524-4.228a4.2,4.2,0,0,1,2.529-5.378h0a4.2,4.2,0,0,1,5.375,2.529l1.524,4.228a4.233,4.233,0,0,0,4.094,2.76,21.778,21.778,0,0,1,2.727.131,4.227,4.227,0,0,0,4.331-2.364l1.915-4.075a4.205,4.205,0,0,1,5.59-2.015" transform="translate(-567.352 319.744)" fill="#8a8a8f"/>
      <path id="path500" d="M602.9-294.981a10.8,10.8,0,0,0-3.661.645,10.707,10.707,0,0,0-6.1,5.554,10.784,10.784,0,0,0,5.169,14.334,10.711,10.711,0,0,0,8.239.388,10.717,10.717,0,0,0,6.1-5.554,10.7,10.7,0,0,0,.385-8.239,10.707,10.707,0,0,0-5.554-6.1A10.715,10.715,0,0,0,602.9-294.981Zm-.017,26.616a15.794,15.794,0,0,1-6.723-1.513,15.843,15.843,0,0,1-7.591-21.054,15.732,15.732,0,0,1,8.956-8.158,15.739,15.739,0,0,1,12.1.567,15.711,15.711,0,0,1,8.155,8.956,15.719,15.719,0,0,1-.564,12.1,15.732,15.732,0,0,1-8.956,8.158,15.872,15.872,0,0,1-5.378.946Zm.419,3.569a6.774,6.774,0,0,1,6.4,4.429l1.524,4.231a1.68,1.68,0,0,0,2.146,1.008,1.654,1.654,0,0,0,.946-.862,1.661,1.661,0,0,0,.062-1.281l-1.524-4.231a6.774,6.774,0,0,1,2.182-7.56,18.873,18.873,0,0,0,1.783-1.63,6.764,6.764,0,0,1,7.734-1.471l4.075,1.915a1.678,1.678,0,0,0,2.227-.8,1.677,1.677,0,0,0-.8-2.23l-4.072-1.915a6.769,6.769,0,0,1-3.8-6.9,19.353,19.353,0,0,0,.117-2.411,6.776,6.776,0,0,1,4.429-6.505l4.228-1.524a1.678,1.678,0,0,0,1.007-2.146,1.668,1.668,0,0,0-.862-.949,1.659,1.659,0,0,0-1.281-.059l-4.231,1.524a6.773,6.773,0,0,1-7.56-2.185,19.623,19.623,0,0,0-1.627-1.781,6.77,6.77,0,0,1-1.474-7.736l1.915-4.072a1.678,1.678,0,0,0-.8-2.23h0a1.659,1.659,0,0,0-1.281-.059,1.667,1.667,0,0,0-.949.862l-1.914,4.072a6.762,6.762,0,0,1-6.9,3.8,18.376,18.376,0,0,0-2.411-.114h-.1a6.777,6.777,0,0,1-6.4-4.429l-1.524-4.228a1.668,1.668,0,0,0-.862-.949,1.673,1.673,0,0,0-1.281-.061,1.681,1.681,0,0,0-1.01,2.146l1.524,4.228a6.777,6.777,0,0,1-2.182,7.563,19.2,19.2,0,0,0-1.783,1.627,6.765,6.765,0,0,1-7.733,1.474l-4.075-1.915a1.673,1.673,0,0,0-2.227.8,1.678,1.678,0,0,0,.8,2.23l4.072,1.912a6.773,6.773,0,0,1,3.8,6.9,19.4,19.4,0,0,0-.117,2.414,6.775,6.775,0,0,1-4.429,6.505l-4.228,1.524a1.678,1.678,0,0,0-1.007,2.143,1.657,1.657,0,0,0,.862.949,1.672,1.672,0,0,0,1.281.059l4.228-1.524a6.776,6.776,0,0,1,7.563,2.185,19.586,19.586,0,0,0,1.627,1.783,6.765,6.765,0,0,1,1.474,7.733l-1.914,4.072a1.676,1.676,0,0,0,.8,2.23,1.679,1.679,0,0,0,2.23-.8l1.914-4.072a6.766,6.766,0,0,1,6.9-3.8,18.261,18.261,0,0,0,2.411.114h.1Zm9.508,14.817a6.736,6.736,0,0,1-6.332-4.446l-1.524-4.228a1.7,1.7,0,0,0-1.683-1.091,24.573,24.573,0,0,1-3.042-.145,1.687,1.687,0,0,0-1.767.929l-1.914,4.072a6.674,6.674,0,0,1-3.807,3.466,6.687,6.687,0,0,1-5.144-.24,6.693,6.693,0,0,1-3.466-3.807,6.68,6.68,0,0,1,.24-5.141l1.914-4.075a1.69,1.69,0,0,0-.413-1.954,24.741,24.741,0,0,1-2.051-2.249,1.71,1.71,0,0,0-1.914-.6l-4.228,1.524a6.733,6.733,0,0,1-8.607-4.047,6.675,6.675,0,0,1,.24-5.144,6.679,6.679,0,0,1,3.807-3.463l4.228-1.527a1.707,1.707,0,0,0,1.091-1.68,24.633,24.633,0,0,1,.145-3.042,1.7,1.7,0,0,0-.929-1.769l-4.072-1.915a6.675,6.675,0,0,1-3.466-3.807,6.68,6.68,0,0,1,.24-5.141,6.73,6.73,0,0,1,8.947-3.226l4.075,1.915a1.7,1.7,0,0,0,1.954-.413,24.789,24.789,0,0,1,2.249-2.054,1.705,1.705,0,0,0,.6-1.912l-1.524-4.228a6.735,6.735,0,0,1,4.047-8.61,6.68,6.68,0,0,1,5.141.24,6.674,6.674,0,0,1,3.466,3.807l1.527,4.228a1.629,1.629,0,0,0,1.68,1.091,24.61,24.61,0,0,1,3.039.148,1.7,1.7,0,0,0,1.772-.929l1.914-4.072a6.683,6.683,0,0,1,3.8-3.469,6.687,6.687,0,0,1,5.144.243,6.735,6.735,0,0,1,3.226,8.947l-1.915,4.072a1.7,1.7,0,0,0,.413,1.956,24.1,24.1,0,0,1,2.051,2.249,1.711,1.711,0,0,0,1.914.6l4.228-1.524a6.675,6.675,0,0,1,5.144.24,6.693,6.693,0,0,1,3.466,3.807,6.68,6.68,0,0,1-.243,5.141,6.669,6.669,0,0,1-3.8,3.466l-4.231,1.524a1.71,1.71,0,0,0-1.091,1.68,24.141,24.141,0,0,1-.145,3.045,1.693,1.693,0,0,0,.929,1.767l4.072,1.915a6.734,6.734,0,0,1,3.226,8.947,6.674,6.674,0,0,1-3.807,3.466,6.68,6.68,0,0,1-5.141-.24l-4.072-1.914a1.7,1.7,0,0,0-1.956.413,24.385,24.385,0,0,1-2.249,2.054,1.71,1.71,0,0,0-.6,1.915l1.524,4.228a6.668,6.668,0,0,1-.24,5.141,6.674,6.674,0,0,1-3.807,3.466,6.691,6.691,0,0,1-2.275.4" transform="translate(-568.673 318.425)" fill="#8a8a8f"/>
    </g>
  </g>
</svg>
